{
  "warnings": [
    {
      "file": "/Users/nautiyalsachin/Documents/Projects/Yelo/Chat Module/Couchbase/View Models/ChatsDocumentViewModel.swift",
      "line": 33,
      "symbol": "ChatsDocumentViewModel.chatDocID",
      "symbol_kind": "source.lang.swift.decl.var.instance",
      "warning": "undocumented"
    },
    {
      "file": "/Users/nautiyalsachin/Documents/Projects/Yelo/Chat Module/MQTT/Models/MQTT.swift",
      "line": 16,
      "symbol": "MQTT.Constants",
      "symbol_kind": "source.lang.swift.decl.struct",
      "warning": "undocumented"
    },
    {
      "file": "/Users/nautiyalsachin/Documents/Projects/Yelo/Chat Module/MQTT/Models/MQTTDelegate.swift",
      "line": 18,
      "symbol": "MQTTDelegate.handleMessage(_:onTopic:retained:)",
      "symbol_kind": "source.lang.swift.decl.function.method.instance",
      "warning": "undocumented"
    },
    {
      "file": "/Users/nautiyalsachin/Documents/Projects/Yelo/Chat Module/MQTT/Models/MQTTDelegate.swift",
      "line": 47,
      "symbol": "MQTTDelegate.sessionManager(_:didDeliverMessage:)",
      "symbol_kind": "source.lang.swift.decl.function.method.instance",
      "warning": "undocumented"
    },
    {
      "file": "/Users/nautiyalsachin/Documents/Projects/Yelo/Chat Module/MQTT/Models/MQTTDelegate.swift",
      "line": 62,
      "symbol": "MQTTDelegate.sessionManager(_:didChange:)",
      "symbol_kind": "source.lang.swift.decl.function.method.instance",
      "warning": "undocumented"
    },
    {
      "file": "/Users/nautiyalsachin/Documents/Projects/Yelo/Chat Module/Models/Chat.swift",
      "line": 100,
      "symbol": "Chat.membername",
      "symbol_kind": "source.lang.swift.decl.var.instance",
      "warning": "undocumented"
    },
    {
      "file": "/Users/nautiyalsachin/Documents/Projects/Yelo/Chat Module/Models/Message.swift",
      "line": 29,
      "symbol": "MessageTypes.text",
      "symbol_kind": "source.lang.swift.decl.enumelement",
      "warning": "undocumented"
    },
    {
      "file": "/Users/nautiyalsachin/Documents/Projects/Yelo/Chat Module/Models/Message.swift",
      "line": 30,
      "symbol": "MessageTypes.image",
      "symbol_kind": "source.lang.swift.decl.enumelement",
      "warning": "undocumented"
    },
    {
      "file": "/Users/nautiyalsachin/Documents/Projects/Yelo/Chat Module/Models/Message.swift",
      "line": 31,
      "symbol": "MessageTypes.video",
      "symbol_kind": "source.lang.swift.decl.enumelement",
      "warning": "undocumented"
    },
    {
      "file": "/Users/nautiyalsachin/Documents/Projects/Yelo/Chat Module/Models/Message.swift",
      "line": 32,
      "symbol": "MessageTypes.location",
      "symbol_kind": "source.lang.swift.decl.enumelement",
      "warning": "undocumented"
    },
    {
      "file": "/Users/nautiyalsachin/Documents/Projects/Yelo/Chat Module/Models/Message.swift",
      "line": 33,
      "symbol": "MessageTypes.contact",
      "symbol_kind": "source.lang.swift.decl.enumelement",
      "warning": "undocumented"
    },
    {
      "file": "/Users/nautiyalsachin/Documents/Projects/Yelo/Chat Module/Models/Message.swift",
      "line": 34,
      "symbol": "MessageTypes.audio",
      "symbol_kind": "source.lang.swift.decl.enumelement",
      "warning": "undocumented"
    },
    {
      "file": "/Users/nautiyalsachin/Documents/Projects/Yelo/Chat Module/Models/Message.swift",
      "line": 35,
      "symbol": "MessageTypes.sticker",
      "symbol_kind": "source.lang.swift.decl.enumelement",
      "warning": "undocumented"
    },
    {
      "file": "/Users/nautiyalsachin/Documents/Projects/Yelo/Chat Module/Models/Message.swift",
      "line": 36,
      "symbol": "MessageTypes.doodle",
      "symbol_kind": "source.lang.swift.decl.enumelement",
      "warning": "undocumented"
    },
    {
      "file": "/Users/nautiyalsachin/Documents/Projects/Yelo/Chat Module/Models/Message.swift",
      "line": 37,
      "symbol": "MessageTypes.gif",
      "symbol_kind": "source.lang.swift.decl.enumelement",
      "warning": "undocumented"
    },
    {
      "file": "/Users/nautiyalsachin/Documents/Projects/Yelo/Chat Module/Models/Message.swift",
      "line": 38,
      "symbol": "MessageTypes.header",
      "symbol_kind": "source.lang.swift.decl.enumelement",
      "warning": "undocumented"
    },
    {
      "file": "/Users/nautiyalsachin/Documents/Projects/Yelo/Chat Module/Models/Message.swift",
      "line": 39,
      "symbol": "MessageTypes.order",
      "symbol_kind": "source.lang.swift.decl.enumelement",
      "warning": "undocumented"
    },
    {
      "file": "/Users/nautiyalsachin/Documents/Projects/Yelo/Chat Module/Models/Message.swift",
      "line": 40,
      "symbol": "MessageTypes.payment",
      "symbol_kind": "source.lang.swift.decl.enumelement",
      "warning": "undocumented"
    },
    {
      "file": "/Users/nautiyalsachin/Documents/Projects/Yelo/Chat Module/Models/Message.swift",
      "line": 335,
      "symbol": "Message.init(coder:)",
      "symbol_kind": "source.lang.swift.decl.function.method.instance",
      "warning": "undocumented"
    },
    {
      "file": "/Users/nautiyalsachin/Documents/Projects/Yelo/Chat Module/Utilities/AppConstants.swift",
      "line": 11,
      "symbol": "AppConstants",
      "symbol_kind": "source.lang.swift.decl.class",
      "warning": "undocumented"
    },
    {
      "file": "/Users/nautiyalsachin/Documents/Projects/Yelo/Chat Module/Utilities/StringExtension.swift",
      "line": 11,
      "symbol": "StringExtension",
      "symbol_kind": "source.lang.swift.decl.class",
      "warning": "undocumented"
    },
    {
      "file": "/Users/nautiyalsachin/Documents/Projects/Yelo/Chat Module/Utilities/UIViewExtensions.swift",
      "line": 16,
      "symbol": "CircleBackgroundView.layoutSubviews()",
      "symbol_kind": "source.lang.swift.decl.function.method.instance",
      "warning": "undocumented"
    },
    {
      "file": "/Users/nautiyalsachin/Documents/Projects/Yelo/Chat Module/View Controllers/BuyerSellerChatPageViewController.swift",
      "line": 51,
      "symbol": "BuyerSellerChatPageViewController.viewDidLoad()",
      "symbol_kind": "source.lang.swift.decl.function.method.instance",
      "warning": "undocumented"
    },
    {
      "file": "/Users/nautiyalsachin/Documents/Projects/Yelo/Chat Module/View Controllers/BuyerSellerChatPageViewController.swift",
      "line": 116,
      "symbol": "BuyerSellerChatPageViewController.pageViewController(_:didFinishAnimating:previousViewControllers:transitionCompleted:)",
      "symbol_kind": "source.lang.swift.decl.function.method.instance",
      "warning": "undocumented"
    },
    {
      "file": "/Users/nautiyalsachin/Documents/Projects/Yelo/Chat Module/View Controllers/BuyerSellerChatPageViewController.swift",
      "line": 134,
      "symbol": "BuyerSellerChatPageViewController.viewDidLayoutSubviews()",
      "symbol_kind": "source.lang.swift.decl.function.method.instance",
      "warning": "undocumented"
    },
    {
      "file": "/Users/nautiyalsachin/Documents/Projects/Yelo/Chat Module/View Controllers/BuyerSellerChatPageViewController.swift",
      "line": 160,
      "symbol": "BuyerSellerChatPageViewController.didReceiveMemoryWarning()",
      "symbol_kind": "source.lang.swift.decl.function.method.instance",
      "warning": "undocumented"
    },
    {
      "file": "/Users/nautiyalsachin/Documents/Projects/Yelo/Chat Module/View Controllers/BuyerSellerChatPageViewController.swift",
      "line": 165,
      "symbol": "BuyerSellerChatPageViewController.willTransition(to:with:)",
      "symbol_kind": "source.lang.swift.decl.function.method.instance",
      "warning": "undocumented"
    },
    {
      "file": "/Users/nautiyalsachin/Documents/Projects/Yelo/Chat Module/View Controllers/BuyerSellerChatPageViewController.swift",
      "line": 175,
      "symbol": "BuyerSellerChatPageViewController.pageViewController(_:viewControllerBefore:)",
      "symbol_kind": "source.lang.swift.decl.function.method.instance",
      "warning": "undocumented"
    },
    {
      "file": "/Users/nautiyalsachin/Documents/Projects/Yelo/Chat Module/View Controllers/BuyerSellerChatPageViewController.swift",
      "line": 188,
      "symbol": "BuyerSellerChatPageViewController.pageViewController(_:viewControllerAfter:)",
      "symbol_kind": "source.lang.swift.decl.function.method.instance",
      "warning": "undocumented"
    },
    {
      "file": "/Users/nautiyalsachin/Documents/Projects/Yelo/Chat Module/View Controllers/BuyerSellerChatPageViewController.swift",
      "line": 201,
      "symbol": "BuyerSellerChatPageViewController.touchesBegan(_:with:)",
      "symbol_kind": "source.lang.swift.decl.function.method.instance",
      "warning": "undocumented"
    },
    {
      "file": "/Users/nautiyalsachin/Documents/Projects/Yelo/Chat Module/View Controllers/BuyerSellerChatViewController.swift",
      "line": null,
      "symbol": "BuyerSellerChatViewController",
      "symbol_kind": "source.lang.swift.decl.extension",
      "warning": "undocumented"
    },
    {
      "file": "/Users/nautiyalsachin/Documents/Projects/Yelo/Chat Module/View Controllers/BuyerSellerChatViewController.swift",
      "line": null,
      "symbol": "BuyerSellerChatViewController",
      "symbol_kind": "source.lang.swift.decl.extension",
      "warning": "undocumented"
    },
    {
      "file": "/Users/nautiyalsachin/Documents/Projects/Yelo/Chat Module/View Controllers/BuyerSellerChatViewController.swift",
      "line": 12,
      "symbol": "BuyerSellerChatViewController",
      "symbol_kind": "source.lang.swift.decl.class",
      "warning": "undocumented"
    },
    {
      "file": "/Users/nautiyalsachin/Documents/Projects/Yelo/Chat Module/View Controllers/BuyerSellerChatViewController.swift",
      "line": 22,
      "symbol": "BuyerSellerChatViewController.searchBarOutlet",
      "symbol_kind": "source.lang.swift.decl.var.instance",
      "warning": "undocumented"
    },
    {
      "file": "/Users/nautiyalsachin/Documents/Projects/Yelo/Chat Module/View Controllers/BuyerSellerChatViewController.swift",
      "line": 23,
      "symbol": "BuyerSellerChatViewController.buyngButtonOutlet",
      "symbol_kind": "source.lang.swift.decl.var.instance",
      "warning": "undocumented"
    },
    {
      "file": "/Users/nautiyalsachin/Documents/Projects/Yelo/Chat Module/View Controllers/BuyerSellerChatViewController.swift",
      "line": 24,
      "symbol": "BuyerSellerChatViewController.buyingViewOutlet",
      "symbol_kind": "source.lang.swift.decl.var.instance",
      "warning": "undocumented"
    },
    {
      "file": "/Users/nautiyalsachin/Documents/Projects/Yelo/Chat Module/View Controllers/BuyerSellerChatViewController.swift",
      "line": 25,
      "symbol": "BuyerSellerChatViewController.sellingButtonOutlet",
      "symbol_kind": "source.lang.swift.decl.var.instance",
      "warning": "undocumented"
    },
    {
      "file": "/Users/nautiyalsachin/Documents/Projects/Yelo/Chat Module/View Controllers/BuyerSellerChatViewController.swift",
      "line": 26,
      "symbol": "BuyerSellerChatViewController.sellingViewOutlet",
      "symbol_kind": "source.lang.swift.decl.var.instance",
      "warning": "undocumented"
    },
    {
      "file": "/Users/nautiyalsachin/Documents/Projects/Yelo/Chat Module/View Controllers/BuyerSellerChatViewController.swift",
      "line": 31,
      "symbol": "BuyerSellerChatViewController.controller",
      "symbol_kind": "source.lang.swift.decl.var.instance",
      "warning": "undocumented"
    },
    {
      "file": "/Users/nautiyalsachin/Documents/Projects/Yelo/Chat Module/View Controllers/BuyerSellerChatViewController.swift",
      "line": 32,
      "symbol": "BuyerSellerChatViewController.violetColor",
      "symbol_kind": "source.lang.swift.decl.var.instance",
      "warning": "undocumented"
    },
    {
      "file": "/Users/nautiyalsachin/Documents/Projects/Yelo/Chat Module/View Controllers/BuyerSellerChatViewController.swift",
      "line": 33,
      "symbol": "BuyerSellerChatViewController.lightVioletColor",
      "symbol_kind": "source.lang.swift.decl.var.instance",
      "warning": "undocumented"
    },
    {
      "file": "/Users/nautiyalsachin/Documents/Projects/Yelo/Chat Module/View Controllers/BuyerSellerChatViewController.swift",
      "line": 34,
      "symbol": "BuyerSellerChatViewController.mqttChatManager",
      "symbol_kind": "source.lang.swift.decl.var.instance",
      "warning": "undocumented"
    },
    {
      "file": "/Users/nautiyalsachin/Documents/Projects/Yelo/Chat Module/View Controllers/BuyerSellerChatViewController.swift",
      "line": 37,
      "symbol": "BuyerSellerChatViewController.viewDidLoad()",
      "symbol_kind": "source.lang.swift.decl.function.method.instance",
      "warning": "undocumented"
    },
    {
      "file": "/Users/nautiyalsachin/Documents/Projects/Yelo/Chat Module/View Controllers/BuyerSellerChatViewController.swift",
      "line": 75,
      "symbol": "BuyerSellerChatViewController.prepare(for:sender:)",
      "symbol_kind": "source.lang.swift.decl.function.method.instance",
      "warning": "undocumented"
    },
    {
      "file": "/Users/nautiyalsachin/Documents/Projects/Yelo/Chat Module/View Controllers/BuyerSellerChatViewController.swift",
      "line": 119,
      "symbol": "BuyerSellerChatViewController.deinit",
      "symbol_kind": "source.lang.swift.decl.function.method.instance",
      "warning": "undocumented"
    },
    {
      "file": "/Users/nautiyalsachin/Documents/Projects/Yelo/Chat Module/View Controllers/BuyerSellerChatViewController.swift",
      "line": 123,
      "symbol": "BuyerSellerChatViewController.viewWillAppear(_:)",
      "symbol_kind": "source.lang.swift.decl.function.method.instance",
      "warning": "undocumented"
    },
    {
      "file": "/Users/nautiyalsachin/Documents/Projects/Yelo/Chat Module/View Controllers/BuyerSellerChatViewController.swift",
      "line": 162,
      "symbol": "BuyerSellerChatViewController.viewDidAppear(_:)",
      "symbol_kind": "source.lang.swift.decl.function.method.instance",
      "warning": "undocumented"
    },
    {
      "file": "/Users/nautiyalsachin/Documents/Projects/Yelo/Chat Module/View Controllers/BuyerSellerChatViewController.swift",
      "line": 186,
      "symbol": "BuyerSellerChatViewController.touchesBegan(_:with:)",
      "symbol_kind": "source.lang.swift.decl.function.method.instance",
      "warning": "undocumented"
    },
    {
      "file": "/Users/nautiyalsachin/Documents/Projects/Yelo/Chat Module/View Controllers/BuyerSellerChatViewController.swift",
      "line": 210,
      "symbol": "BuyerSellerChatViewController.searchBar(_:shouldChangeTextIn:replacementText:)",
      "symbol_kind": "source.lang.swift.decl.function.method.instance",
      "warning": "undocumented"
    },
    {
      "file": "/Users/nautiyalsachin/Documents/Projects/Yelo/Chat Module/View Controllers/BuyerSellerChatViewController.swift",
      "line": 216,
      "symbol": "BuyerSellerChatViewController.searchBarSearchButtonClicked(_:)",
      "symbol_kind": "source.lang.swift.decl.function.method.instance",
      "warning": "undocumented"
    },
    {
      "file": "/Users/nautiyalsachin/Documents/Projects/Yelo/Chat Module/View Controllers/ChatListTableViewCell.swift",
      "line": 16,
      "symbol": "ChatListTableViewCell.userImageOutlet",
      "symbol_kind": "source.lang.swift.decl.var.instance",
      "warning": "undocumented"
    },
    {
      "file": "/Users/nautiyalsachin/Documents/Projects/Yelo/Chat Module/View Controllers/ChatListTableViewCell.swift",
      "line": 17,
      "symbol": "ChatListTableViewCell.userNameOutlet",
      "symbol_kind": "source.lang.swift.decl.var.instance",
      "warning": "undocumented"
    },
    {
      "file": "/Users/nautiyalsachin/Documents/Projects/Yelo/Chat Module/View Controllers/ChatListTableViewCell.swift",
      "line": 18,
      "symbol": "ChatListTableViewCell.lastMessageOutlet",
      "symbol_kind": "source.lang.swift.decl.var.instance",
      "warning": "undocumented"
    },
    {
      "file": "/Users/nautiyalsachin/Documents/Projects/Yelo/Chat Module/View Controllers/ChatListTableViewCell.swift",
      "line": 19,
      "symbol": "ChatListTableViewCell.lastimeMessageOutlet",
      "symbol_kind": "source.lang.swift.decl.var.instance",
      "warning": "undocumented"
    },
    {
      "file": "/Users/nautiyalsachin/Documents/Projects/Yelo/Chat Module/View Controllers/ChatListTableViewCell.swift",
      "line": 20,
      "symbol": "ChatListTableViewCell.unreadMessageCountOutlet",
      "symbol_kind": "source.lang.swift.decl.var.instance",
      "warning": "undocumented"
    },
    {
      "file": "/Users/nautiyalsachin/Documents/Projects/Yelo/Chat Module/View Controllers/ChatListTableViewCell.swift",
      "line": 21,
      "symbol": "ChatListTableViewCell.unreadMsgbackgroundViewOutlet",
      "symbol_kind": "source.lang.swift.decl.var.instance",
      "warning": "undocumented"
    },
    {
      "file": "/Users/nautiyalsachin/Documents/Projects/Yelo/Chat Module/View Controllers/ChatListTableViewCell.swift",
      "line": 22,
      "symbol": "ChatListTableViewCell.lastTimeForMsgOutlet",
      "symbol_kind": "source.lang.swift.decl.var.instance",
      "warning": "undocumented"
    },
    {
      "file": "/Users/nautiyalsachin/Documents/Projects/Yelo/Chat Module/View Controllers/ChatListTableViewCell.swift",
      "line": 24,
      "symbol": "ChatListTableViewCell.awakeFromNib()",
      "symbol_kind": "source.lang.swift.decl.function.method.instance",
      "warning": "undocumented"
    },
    {
      "file": "/Users/nautiyalsachin/Documents/Projects/Yelo/Chat Module/View Controllers/ChatListTableViewCell.swift",
      "line": 176,
      "symbol": "ChatListTableViewCell.setSelected(_:animated:)",
      "symbol_kind": "source.lang.swift.decl.function.method.instance",
      "warning": "undocumented"
    },
    {
      "file": "/Users/nautiyalsachin/Documents/Projects/Yelo/Chat Module/View Controllers/ChatViewController.swift",
      "line": 42,
      "symbol": "ChatViewController.userImageOutlet",
      "symbol_kind": "source.lang.swift.decl.var.instance",
      "warning": "undocumented"
    },
    {
      "file": "/Users/nautiyalsachin/Documents/Projects/Yelo/Chat Module/View Controllers/ChatViewController.swift",
      "line": 43,
      "symbol": "ChatViewController.TitleLabelOutlet",
      "symbol_kind": "source.lang.swift.decl.var.instance",
      "warning": "undocumented"
    },
    {
      "file": "/Users/nautiyalsachin/Documents/Projects/Yelo/Chat Module/View Controllers/ChatViewController.swift",
      "line": 44,
      "symbol": "ChatViewController.currentChatStatusLabelOutlet",
      "symbol_kind": "source.lang.swift.decl.var.instance",
      "warning": "undocumented"
    },
    {
      "file": "/Users/nautiyalsachin/Documents/Projects/Yelo/Chat Module/View Controllers/ChatViewController.swift",
      "line": 47,
      "symbol": "ChatViewController.couchbaseObj",
      "symbol_kind": "source.lang.swift.decl.var.instance",
      "warning": "undocumented"
    },
    {
      "file": "/Users/nautiyalsachin/Documents/Projects/Yelo/Chat Module/View Controllers/ChatViewController.swift",
      "line": 48,
      "symbol": "ChatViewController.refresher",
      "symbol_kind": "source.lang.swift.decl.var.instance",
      "warning": "undocumented"
    },
    {
      "file": "/Users/nautiyalsachin/Documents/Projects/Yelo/Chat Module/View Controllers/ChatViewController.swift",
      "line": 49,
      "symbol": "ChatViewController.staySafePopUpCount",
      "symbol_kind": "source.lang.swift.decl.var.instance",
      "warning": "undocumented"
    },
    {
      "file": "/Users/nautiyalsachin/Documents/Projects/Yelo/Chat Module/View Controllers/ChatViewController.swift",
      "line": 50,
      "symbol": "ChatViewController.chatsDocVMObject",
      "symbol_kind": "source.lang.swift.decl.var.instance",
      "warning": "undocumented"
    },
    {
      "file": "/Users/nautiyalsachin/Documents/Projects/Yelo/Chat Module/View Controllers/ChatViewController.swift",
      "line": 72,
      "symbol": "ChatViewController.chatDocID",
      "symbol_kind": "source.lang.swift.decl.var.instance",
      "warning": "undocumented"
    },
    {
      "file": "/Users/nautiyalsachin/Documents/Projects/Yelo/Chat Module/View Controllers/ChatViewController.swift",
      "line": 76,
      "symbol": "ChatViewController.recieverID",
      "symbol_kind": "source.lang.swift.decl.var.instance",
      "warning": "undocumented"
    },
    {
      "file": "/Users/nautiyalsachin/Documents/Projects/Yelo/Chat Module/View Controllers/ChatViewController.swift",
      "line": 77,
      "symbol": "ChatViewController.productID",
      "symbol_kind": "source.lang.swift.decl.var.instance",
      "warning": "undocumented"
    },
    {
      "file": "/Users/nautiyalsachin/Documents/Projects/Yelo/Chat Module/View Controllers/ChatViewController.swift",
      "line": 79,
      "symbol": "ChatViewController.userName",
      "symbol_kind": "source.lang.swift.decl.var.instance",
      "warning": "undocumented"
    },
    {
      "file": "/Users/nautiyalsachin/Documents/Projects/Yelo/Chat Module/View Controllers/ChatViewController.swift",
      "line": 80,
      "symbol": "ChatViewController.isTypingVisible",
      "symbol_kind": "source.lang.swift.decl.var.instance",
      "warning": "undocumented"
    },
    {
      "file": "/Users/nautiyalsachin/Documents/Projects/Yelo/Chat Module/View Controllers/ChatViewController.swift",
      "line": 87,
      "symbol": "ChatViewController.viewDidLoad()",
      "symbol_kind": "source.lang.swift.decl.function.method.instance",
      "warning": "undocumented"
    },
    {
      "file": "/Users/nautiyalsachin/Documents/Projects/Yelo/Chat Module/View Controllers/ChatViewController.swift",
      "line": 214,
      "symbol": "ChatViewController.deinit",
      "symbol_kind": "source.lang.swift.decl.function.method.instance",
      "warning": "undocumented"
    },
    {
      "file": "/Users/nautiyalsachin/Documents/Projects/Yelo/Chat Module/View Controllers/ChatViewController.swift",
      "line": 254,
      "symbol": "ChatViewController.viewDidAppear(_:)",
      "symbol_kind": "source.lang.swift.decl.function.method.instance",
      "warning": "undocumented"
    },
    {
      "file": "/Users/nautiyalsachin/Documents/Projects/Yelo/Chat Module/View Controllers/ChatViewController.swift",
      "line": 262,
      "symbol": "ChatViewController.viewWillAppear(_:)",
      "symbol_kind": "source.lang.swift.decl.function.method.instance",
      "warning": "undocumented"
    },
    {
      "file": "/Users/nautiyalsachin/Documents/Projects/Yelo/Chat Module/View Controllers/ChatViewController.swift",
      "line": 319,
      "symbol": "ChatViewController.viewWillDisappear(_:)",
      "symbol_kind": "source.lang.swift.decl.function.method.instance",
      "warning": "undocumented"
    },
    {
      "file": "/Users/nautiyalsachin/Documents/Projects/Yelo/Chat Module/View Controllers/ChatViewController.swift",
      "line": 432,
      "symbol": "ChatViewController.senderDisplayName()",
      "symbol_kind": "source.lang.swift.decl.function.method.instance",
      "warning": "undocumented"
    },
    {
      "file": "/Users/nautiyalsachin/Documents/Projects/Yelo/Chat Module/View Controllers/ChatViewController.swift",
      "line": 435,
      "symbol": "ChatViewController.didReceiveMemoryWarning()",
      "symbol_kind": "source.lang.swift.decl.function.method.instance",
      "warning": "undocumented"
    },
    {
      "file": "/Users/nautiyalsachin/Documents/Projects/Yelo/Chat Module/View Controllers/ChatViewController.swift",
      "line": 440,
      "symbol": "ChatViewController.prepare(for:sender:)",
      "symbol_kind": "source.lang.swift.decl.function.method.instance",
      "warning": "undocumented"
    },
    {
      "file": "/Users/nautiyalsachin/Documents/Projects/Yelo/Chat Module/View Controllers/ChatViewController.swift",
      "line": 485,
      "symbol": "ChatViewController.collectionView(_:cellForItemAt:)",
      "symbol_kind": "source.lang.swift.decl.function.method.instance",
      "warning": "undocumented"
    },
    {
      "file": "/Users/nautiyalsachin/Documents/Projects/Yelo/Chat Module/View Controllers/ChatViewController.swift",
      "line": 676,
      "symbol": "ChatViewController.collectionView(_:numberOfItemsInSection:)",
      "symbol_kind": "source.lang.swift.decl.function.method.instance",
      "warning": "undocumented"
    },
    {
      "file": "/Users/nautiyalsachin/Documents/Projects/Yelo/Chat Module/View Controllers/ChatViewController.swift",
      "line": 682,
      "symbol": "ChatViewController.collectionView(_:messageDataForItemAt:)",
      "symbol_kind": "source.lang.swift.decl.function.method.instance",
      "warning": "undocumented"
    },
    {
      "file": "/Users/nautiyalsachin/Documents/Projects/Yelo/Chat Module/View Controllers/ChatViewController.swift",
      "line": 689,
      "symbol": "ChatViewController.collectionView(_:didDeleteMessageAt:)",
      "symbol_kind": "source.lang.swift.decl.function.method.instance",
      "warning": "undocumented"
    },
    {
      "file": "/Users/nautiyalsachin/Documents/Projects/Yelo/Chat Module/View Controllers/ChatViewController.swift",
      "line": 697,
      "symbol": "ChatViewController.collectionView(_:messageBubbleImageDataForItemAt:)",
      "symbol_kind": "source.lang.swift.decl.function.method.instance",
      "warning": "undocumented"
    },
    {
      "file": "/Users/nautiyalsachin/Documents/Projects/Yelo/Chat Module/View Controllers/ChatViewController.swift",
      "line": 704,
      "symbol": "ChatViewController.collectionView(_:avatarImageDataForItemAt:)",
      "symbol_kind": "source.lang.swift.decl.function.method.instance",
      "warning": "undocumented"
    },
    {
      "file": "/Users/nautiyalsachin/Documents/Projects/Yelo/Chat Module/View Controllers/ChatViewController.swift",
      "line": 710,
      "symbol": "ChatViewController.collectionView(_:attributedTextForMessageBubbleTopLabelAt:)",
      "symbol_kind": "source.lang.swift.decl.function.method.instance",
      "warning": "undocumented"
    },
    {
      "file": "/Users/nautiyalsachin/Documents/Projects/Yelo/Chat Module/View Controllers/ChatViewController.swift",
      "line": 723,
      "symbol": "ChatViewController.collectionView(_:attributedTextForCellTopLabelAt:)",
      "symbol_kind": "source.lang.swift.decl.function.method.instance",
      "warning": "undocumented"
    },
    {
      "file": "/Users/nautiyalsachin/Documents/Projects/Yelo/Chat Module/View Controllers/ChatViewController.swift",
      "line": 803,
      "symbol": "ChatViewController.collectionView(_:layout:heightForCellTopLabelAt:)",
      "symbol_kind": "source.lang.swift.decl.function.method.instance",
      "warning": "undocumented"
    },
    {
      "file": "/Users/nautiyalsachin/Documents/Projects/Yelo/Chat Module/View Controllers/ChatViewController.swift",
      "line": 832,
      "symbol": "ChatViewController.collectionView(_:layout:heightForMessageBubbleTopLabelAt:)",
      "symbol_kind": "source.lang.swift.decl.function.method.instance",
      "warning": "undocumented"
    },
    {
      "file": "/Users/nautiyalsachin/Documents/Projects/Yelo/Chat Module/View Controllers/ChatViewController.swift",
      "line": 858,
      "symbol": "ChatViewController.collectionView(_:didTapMessageBubbleAt:)",
      "symbol_kind": "source.lang.swift.decl.function.method.instance",
      "warning": "undocumented"
    },
    {
      "file": "/Users/nautiyalsachin/Documents/Projects/Yelo/Chat Module/View Controllers/ChatViewController.swift",
      "line": 868,
      "symbol": "ChatViewController.collectionView(_:layout:heightForCellBottomLabelAt:)",
      "symbol_kind": "source.lang.swift.decl.function.method.instance",
      "warning": "undocumented"
    },
    {
      "file": "/Users/nautiyalsachin/Documents/Projects/Yelo/Chat Module/View Controllers/ChatViewController.swift",
      "line": 872,
      "symbol": "ChatViewController.collectionView(_:didTapCellAt:touchLocation:)",
      "symbol_kind": "source.lang.swift.decl.function.method.instance",
      "warning": "undocumented"
    },
    {
      "file": "/Users/nautiyalsachin/Documents/Projects/Yelo/Chat Module/View Controllers/ChatViewController.swift",
      "line": 876,
      "symbol": "ChatViewController.didPressSend(_:withMessageText:senderId:senderDisplayName:date:)",
      "symbol_kind": "source.lang.swift.decl.function.method.instance",
      "warning": "undocumented"
    },
    {
      "file": "/Users/nautiyalsachin/Documents/Projects/Yelo/Chat Module/View Controllers/ChatViewController.swift",
      "line": 978,
      "symbol": "ChatViewController.collectionView(_:header:didTapLoadEarlierMessagesButton:)",
      "symbol_kind": "source.lang.swift.decl.function.method.instance",
      "warning": "undocumented"
    },
    {
      "file": "/Users/nautiyalsachin/Documents/Projects/Yelo/Chat Module/View Controllers/ChatViewController.swift",
      "line": 982,
      "symbol": "ChatViewController.didPressAccessoryButton(_:)",
      "symbol_kind": "source.lang.swift.decl.function.method.instance",
      "warning": "undocumented"
    },
    {
      "file": "/Users/nautiyalsachin/Documents/Projects/Yelo/Chat Module/View Controllers/ChatViewController.swift",
      "line": 1062,
      "symbol": "ChatViewController.imagePickerController(_:didFinishPickingMediaWithInfo:)",
      "symbol_kind": "source.lang.swift.decl.function.method.instance",
      "warning": "undocumented"
    },
    {
      "file": "/Users/nautiyalsachin/Documents/Projects/Yelo/Chat Module/View Controllers/ChatViewController.swift",
      "line": 1379,
      "symbol": "ChatViewController.textViewDidChange(_:)",
      "symbol_kind": "source.lang.swift.decl.function.method.instance",
      "warning": "undocumented"
    },
    {
      "file": "/Users/nautiyalsachin/Documents/Projects/Yelo/Chat Module/View Controllers/ChatViewController.swift",
      "line": 1505,
      "symbol": "ChatViewController.locationSelected(_:)",
      "symbol_kind": "source.lang.swift.decl.function.method.instance",
      "warning": "undocumented"
    },
    {
      "file": "/Users/nautiyalsachin/Documents/Projects/Yelo/Chat Module/View Controllers/ChatViewController.swift",
      "line": 1602,
      "symbol": "ChatViewController.detailsButtonAction(_:)",
      "symbol_kind": "source.lang.swift.decl.function.method.instance",
      "warning": "undocumented"
    },
    {
      "file": "/Users/nautiyalsachin/Documents/Projects/Yelo/Chat Module/View Controllers/ChatViewController.swift",
      "line": 1613,
      "symbol": "ChatViewController.paypalLinkIsSaved(_:)",
      "symbol_kind": "source.lang.swift.decl.function.method.instance",
      "warning": "undocumented"
    },
    {
      "file": "/Users/nautiyalsachin/Documents/Projects/Yelo/Chat Module/View Controllers/ChatsListViewController.swift",
      "line": null,
      "symbol": "ChatsListViewController",
      "symbol_kind": "source.lang.swift.decl.extension",
      "warning": "undocumented"
    },
    {
      "file": "/Users/nautiyalsachin/Documents/Projects/Yelo/Chat Module/View Controllers/ChatsListViewController.swift",
      "line": 22,
      "symbol": "ChatsListViewController",
      "symbol_kind": "source.lang.swift.decl.class",
      "warning": "undocumented"
    },
    {
      "file": "/Users/nautiyalsachin/Documents/Projects/Yelo/Chat Module/View Controllers/ChatsListViewController.swift",
      "line": 43,
      "symbol": "ChatsListViewController.tableViewOutlet",
      "symbol_kind": "source.lang.swift.decl.var.instance",
      "warning": "undocumented"
    },
    {
      "file": "/Users/nautiyalsachin/Documents/Projects/Yelo/Chat Module/View Controllers/ChatsListViewController.swift",
      "line": 44,
      "symbol": "ChatsListViewController.noChatMsgAvailableView",
      "symbol_kind": "source.lang.swift.decl.var.instance",
      "warning": "undocumented"
    },
    {
      "file": "/Users/nautiyalsachin/Documents/Projects/Yelo/Chat Module/View Controllers/ChatsListViewController.swift",
      "line": 46,
      "symbol": "ChatsListViewController.viewDidLoad()",
      "symbol_kind": "source.lang.swift.decl.function.method.instance",
      "warning": "undocumented"
    },
    {
      "file": "/Users/nautiyalsachin/Documents/Projects/Yelo/Chat Module/View Controllers/ChatsListViewController.swift",
      "line": 52,
      "symbol": "ChatsListViewController.viewWillAppear(_:)",
      "symbol_kind": "source.lang.swift.decl.function.method.instance",
      "warning": "undocumented"
    },
    {
      "file": "/Users/nautiyalsachin/Documents/Projects/Yelo/Chat Module/View Controllers/ChatsListViewController.swift",
      "line": 59,
      "symbol": "ChatsListViewController.viewDidAppear(_:)",
      "symbol_kind": "source.lang.swift.decl.function.method.instance",
      "warning": "undocumented"
    },
    {
      "file": "/Users/nautiyalsachin/Documents/Projects/Yelo/Chat Module/View Controllers/ChatsListViewController.swift",
      "line": 70,
      "symbol": "ChatsListViewController.didReceiveMemoryWarning()",
      "symbol_kind": "source.lang.swift.decl.function.method.instance",
      "warning": "undocumented"
    },
    {
      "file": "/Users/nautiyalsachin/Documents/Projects/Yelo/Chat Module/View Controllers/ChatsListViewController.swift",
      "line": 81,
      "symbol": "ChatsListViewController.prepare(for:sender:)",
      "symbol_kind": "source.lang.swift.decl.function.method.instance",
      "warning": "undocumented"
    },
    {
      "file": "/Users/nautiyalsachin/Documents/Projects/Yelo/Chat Module/View Controllers/ChatsListViewController.swift",
      "line": 101,
      "symbol": "ChatsListViewController.tableView(_:cellForRowAt:)",
      "symbol_kind": "source.lang.swift.decl.function.method.instance",
      "warning": "undocumented"
    },
    {
      "file": "/Users/nautiyalsachin/Documents/Projects/Yelo/Chat Module/View Controllers/ChatsListViewController.swift",
      "line": 106,
      "symbol": "ChatsListViewController.tableView(_:numberOfRowsInSection:)",
      "symbol_kind": "source.lang.swift.decl.function.method.instance",
      "warning": "undocumented"
    },
    {
      "file": "/Users/nautiyalsachin/Documents/Projects/Yelo/Chat Module/View Controllers/ChatsListViewController.swift",
      "line": 110,
      "symbol": "ChatsListViewController.tableView(_:heightForRowAt:)",
      "symbol_kind": "source.lang.swift.decl.function.method.instance",
      "warning": "undocumented"
    },
    {
      "file": "/Users/nautiyalsachin/Documents/Projects/Yelo/Chat Module/View Controllers/ChatsListViewController.swift",
      "line": 114,
      "symbol": "ChatsListViewController.tableView(_:didSelectRowAt:)",
      "symbol_kind": "source.lang.swift.decl.function.method.instance",
      "warning": "undocumented"
    },
    {
      "file": "/Users/nautiyalsachin/Documents/Projects/Yelo/Chat Module/View Controllers/ChatsListViewController.swift",
      "line": 118,
      "symbol": "ChatsListViewController.tableView(_:canEditRowAt:)",
      "symbol_kind": "source.lang.swift.decl.function.method.instance",
      "warning": "undocumented"
    },
    {
      "file": "/Users/nautiyalsachin/Documents/Projects/Yelo/Chat Module/View Controllers/ChatsListViewController.swift",
      "line": 122,
      "symbol": "ChatsListViewController.setEditing(_:animated:)",
      "symbol_kind": "source.lang.swift.decl.function.method.instance",
      "warning": "undocumented"
    },
    {
      "file": "/Users/nautiyalsachin/Documents/Projects/Yelo/Chat Module/View Controllers/ChatsListViewController.swift",
      "line": 127,
      "symbol": "ChatsListViewController.tableView(_:commit:forRowAt:)",
      "symbol_kind": "source.lang.swift.decl.function.method.instance",
      "warning": "undocumented"
    },
    {
      "file": "/Users/nautiyalsachin/Documents/Projects/Yelo/Chat Module/View Controllers/ChatsListViewController.swift",
      "line": 153,
      "symbol": "ChatsListViewController.touchesBegan(_:with:)",
      "symbol_kind": "source.lang.swift.decl.function.method.instance",
      "warning": "undocumented"
    },
    {
      "file": "/Users/nautiyalsachin/Documents/Projects/Yelo/Chat Module/View Controllers/CounterOfferViewController.swift",
      "line": 13,
      "symbol": "CounterOfferViewController",
      "symbol_kind": "source.lang.swift.decl.class",
      "warning": "undocumented"
    },
    {
      "file": "/Users/nautiyalsachin/Documents/Projects/Yelo/Chat Module/View Controllers/CounterOfferViewController.swift",
      "line": 15,
      "symbol": "CounterOfferViewController.productImageOutlet",
      "symbol_kind": "source.lang.swift.decl.var.instance",
      "warning": "undocumented"
    },
    {
      "file": "/Users/nautiyalsachin/Documents/Projects/Yelo/Chat Module/View Controllers/CounterOfferViewController.swift",
      "line": 16,
      "symbol": "CounterOfferViewController.productNameOutlet",
      "symbol_kind": "source.lang.swift.decl.var.instance",
      "warning": "undocumented"
    },
    {
      "file": "/Users/nautiyalsachin/Documents/Projects/Yelo/Chat Module/View Controllers/CounterOfferViewController.swift",
      "line": 17,
      "symbol": "CounterOfferViewController.productDistanceOutlet",
      "symbol_kind": "source.lang.swift.decl.var.instance",
      "warning": "undocumented"
    },
    {
      "file": "/Users/nautiyalsachin/Documents/Projects/Yelo/Chat Module/View Controllers/CounterOfferViewController.swift",
      "line": 18,
      "symbol": "CounterOfferViewController.askingPriceLabelOutlet",
      "symbol_kind": "source.lang.swift.decl.var.instance",
      "warning": "undocumented"
    },
    {
      "file": "/Users/nautiyalsachin/Documents/Projects/Yelo/Chat Module/View Controllers/CounterOfferViewController.swift",
      "line": 19,
      "symbol": "CounterOfferViewController.newPriceTextFieldOutlet",
      "symbol_kind": "source.lang.swift.decl.var.instance",
      "warning": "undocumented"
    },
    {
      "file": "/Users/nautiyalsachin/Documents/Projects/Yelo/Chat Module/View Controllers/CounterOfferViewController.swift",
      "line": 20,
      "symbol": "CounterOfferViewController.currencyLabelOutlet",
      "symbol_kind": "source.lang.swift.decl.var.instance",
      "warning": "undocumented"
    },
    {
      "file": "/Users/nautiyalsachin/Documents/Projects/Yelo/Chat Module/View Controllers/CounterOfferViewController.swift",
      "line": 32,
      "symbol": "CounterOfferViewController.viewDidLoad()",
      "symbol_kind": "source.lang.swift.decl.function.method.instance",
      "warning": "undocumented"
    },
    {
      "file": "/Users/nautiyalsachin/Documents/Projects/Yelo/Chat Module/View Controllers/CounterOfferViewController.swift",
      "line": 85,
      "symbol": "CounterOfferViewController.viewWillAppear(_:)",
      "symbol_kind": "source.lang.swift.decl.function.method.instance",
      "warning": "undocumented"
    },
    {
      "file": "/Users/nautiyalsachin/Documents/Projects/Yelo/Chat Module/View Controllers/CounterOfferViewController.swift",
      "line": 90,
      "symbol": "CounterOfferViewController.viewWillDisappear(_:)",
      "symbol_kind": "source.lang.swift.decl.function.method.instance",
      "warning": "undocumented"
    },
    {
      "file": "/Users/nautiyalsachin/Documents/Projects/Yelo/Chat Module/View Controllers/CounterOfferViewController.swift",
      "line": 95,
      "symbol": "CounterOfferViewController.didReceiveMemoryWarning()",
      "symbol_kind": "source.lang.swift.decl.function.method.instance",
      "warning": "undocumented"
    },
    {
      "file": "/Users/nautiyalsachin/Documents/Projects/Yelo/Chat Module/View Controllers/CounterOfferViewController.swift",
      "line": 116,
      "symbol": "CounterOfferViewController.touchesBegan(_:with:)",
      "symbol_kind": "source.lang.swift.decl.function.method.instance",
      "warning": "undocumented"
    },
    {
      "file": "/Users/nautiyalsachin/Documents/Projects/Yelo/Chat Module/View Controllers/Image Viewer Controller/ImageViewerViewController.swift",
      "line": 12,
      "symbol": "ImageViewerViewController",
      "symbol_kind": "source.lang.swift.decl.class",
      "warning": "undocumented"
    },
    {
      "file": "/Users/nautiyalsachin/Documents/Projects/Yelo/Chat Module/View Controllers/Image Viewer Controller/ImageViewerViewController.swift",
      "line": 14,
      "symbol": "ImageViewerViewController.progressViewOutlet",
      "symbol_kind": "source.lang.swift.decl.var.instance",
      "warning": "undocumented"
    },
    {
      "file": "/Users/nautiyalsachin/Documents/Projects/Yelo/Chat Module/View Controllers/Image Viewer Controller/ImageViewerViewController.swift",
      "line": 15,
      "symbol": "ImageViewerViewController.imageViewOutlet",
      "symbol_kind": "source.lang.swift.decl.var.instance",
      "warning": "undocumented"
    },
    {
      "file": "/Users/nautiyalsachin/Documents/Projects/Yelo/Chat Module/View Controllers/Image Viewer Controller/ImageViewerViewController.swift",
      "line": 21,
      "symbol": "ImageViewerViewController.viewDidLoad()",
      "symbol_kind": "source.lang.swift.decl.function.method.instance",
      "warning": "undocumented"
    },
    {
      "file": "/Users/nautiyalsachin/Documents/Projects/Yelo/Chat Module/View Controllers/Image Viewer Controller/ImageViewerViewController.swift",
      "line": 25,
      "symbol": "ImageViewerViewController.viewWillAppear(_:)",
      "symbol_kind": "source.lang.swift.decl.function.method.instance",
      "warning": "undocumented"
    },
    {
      "file": "/Users/nautiyalsachin/Documents/Projects/Yelo/Chat Module/View Controllers/Image Viewer Controller/ImageViewerViewController.swift",
      "line": 44,
      "symbol": "ImageViewerViewController.didReceiveMemoryWarning()",
      "symbol_kind": "source.lang.swift.decl.function.method.instance",
      "warning": "undocumented"
    },
    {
      "file": "/Users/nautiyalsachin/Documents/Projects/Yelo/Chat Module/View Controllers/PayPalWebViewController.swift",
      "line": null,
      "symbol": "PayPalWebViewController",
      "symbol_kind": "source.lang.swift.decl.extension",
      "warning": "undocumented"
    },
    {
      "file": "/Users/nautiyalsachin/Documents/Projects/Yelo/Chat Module/View Controllers/PayPalWebViewController.swift",
      "line": 12,
      "symbol": "PayPalWebViewController",
      "symbol_kind": "source.lang.swift.decl.class",
      "warning": "undocumented"
    },
    {
      "file": "/Users/nautiyalsachin/Documents/Projects/Yelo/Chat Module/View Controllers/PayPalWebViewController.swift",
      "line": 14,
      "symbol": "PayPalWebViewController.webViewOutlet",
      "symbol_kind": "source.lang.swift.decl.var.instance",
      "warning": "undocumented"
    },
    {
      "file": "/Users/nautiyalsachin/Documents/Projects/Yelo/Chat Module/View Controllers/PayPalWebViewController.swift",
      "line": 15,
      "symbol": "PayPalWebViewController.progressIndicatorView",
      "symbol_kind": "source.lang.swift.decl.var.instance",
      "warning": "undocumented"
    },
    {
      "file": "/Users/nautiyalsachin/Documents/Projects/Yelo/Chat Module/View Controllers/PayPalWebViewController.swift",
      "line": 16,
      "symbol": "PayPalWebViewController.webView",
      "symbol_kind": "source.lang.swift.decl.var.instance",
      "warning": "undocumented"
    },
    {
      "file": "/Users/nautiyalsachin/Documents/Projects/Yelo/Chat Module/View Controllers/PayPalWebViewController.swift",
      "line": 21,
      "symbol": "PayPalWebViewController.viewDidLoad()",
      "symbol_kind": "source.lang.swift.decl.function.method.instance",
      "warning": "undocumented"
    },
    {
      "file": "/Users/nautiyalsachin/Documents/Projects/Yelo/Chat Module/View Controllers/PayPalWebViewController.swift",
      "line": 38,
      "symbol": "PayPalWebViewController.didReceiveMemoryWarning()",
      "symbol_kind": "source.lang.swift.decl.function.method.instance",
      "warning": "undocumented"
    },
    {
      "file": "/Users/nautiyalsachin/Documents/Projects/Yelo/Chat Module/View Controllers/PayPalWebViewController.swift",
      "line": 64,
      "symbol": "PayPalWebViewController.webView(_:didFail:withError:)",
      "symbol_kind": "source.lang.swift.decl.function.method.instance",
      "warning": "undocumented"
    },
    {
      "file": "/Users/nautiyalsachin/Documents/Projects/Yelo/Chat Module/View Controllers/PayPalWebViewController.swift",
      "line": 68,
      "symbol": "PayPalWebViewController.webView(_:didFinish:)",
      "symbol_kind": "source.lang.swift.decl.function.method.instance",
      "warning": "undocumented"
    },
    {
      "file": "/Users/nautiyalsachin/Documents/Projects/Yelo/Chat Module/View Controllers/Stay Safe PopUp/StaySafeViewController.swift",
      "line": 15,
      "symbol": "StaySafeViewController.viewDidLoad()",
      "symbol_kind": "source.lang.swift.decl.function.method.instance",
      "warning": "undocumented"
    },
    {
      "file": "/Users/nautiyalsachin/Documents/Projects/Yelo/Chat Module/View Models/ChatListViewModel.swift",
      "line": 12,
      "symbol": "ChatListViewModel",
      "symbol_kind": "source.lang.swift.decl.class",
      "warning": "undocumented"
    },
    {
      "file": "/Users/nautiyalsachin/Documents/Projects/Yelo/Chat Module/View Models/ChatListViewModel.swift",
      "line": 36,
      "symbol": "ChatListViewModel.userName",
      "symbol_kind": "source.lang.swift.decl.var.instance",
      "warning": "undocumented"
    },
    {
      "file": "/Users/nautiyalsachin/Documents/Projects/Yelo/Chat Module/View Models/ChatViewModel.swift",
      "line": 12,
      "symbol": "ChatViewModel",
      "symbol_kind": "source.lang.swift.decl.class",
      "warning": "undocumented"
    },
    {
      "file": "/Users/nautiyalsachin/Documents/Projects/Yelo/Chat Module/View Models/ChatViewModel.swift",
      "line": 20,
      "symbol": "ChatViewModel.api",
      "symbol_kind": "source.lang.swift.decl.var.instance",
      "warning": "undocumented"
    },
    {
      "file": "/Users/nautiyalsachin/Documents/Projects/Yelo/Chat Module/View Models/MessageViewModal.swift",
      "line": 11,
      "symbol": "MessageViewModal",
      "symbol_kind": "source.lang.swift.decl.class",
      "warning": "undocumented"
    },
    {
      "file": "/Users/nautiyalsachin/Documents/Projects/Yelo/Chat Module/Views/CounterOfferPriceCollectionViewCell.swift",
      "line": 30,
      "symbol": "CounterOfferPriceCollectionViewCell.mainViewOutlet",
      "symbol_kind": "source.lang.swift.decl.var.instance",
      "warning": "undocumented"
    },
    {
      "file": "/Users/nautiyalsachin/Documents/Projects/Yelo/Chat Module/Views/CounterOfferPriceCollectionViewCell.swift",
      "line": 31,
      "symbol": "CounterOfferPriceCollectionViewCell.mainTitleLabelOutlet",
      "symbol_kind": "source.lang.swift.decl.var.instance",
      "warning": "undocumented"
    },
    {
      "file": "/Users/nautiyalsachin/Documents/Projects/Yelo/Chat Module/Views/CounterOfferPriceCollectionViewCell.swift",
      "line": 32,
      "symbol": "CounterOfferPriceCollectionViewCell.priceOutlet",
      "symbol_kind": "source.lang.swift.decl.var.instance",
      "warning": "undocumented"
    },
    {
      "file": "/Users/nautiyalsachin/Documents/Projects/Yelo/Chat Module/Views/CounterOfferPriceCollectionViewCell.swift",
      "line": 58,
      "symbol": "CounterOfferPriceCollectionViewCell.awakeFromNib()",
      "symbol_kind": "source.lang.swift.decl.function.method.instance",
      "warning": "undocumented"
    },
    {
      "file": "/Users/nautiyalsachin/Documents/Projects/Yelo/Chat Module/Views/CounterOfferPriceCollectionViewCell.swift",
      "line": 86,
      "symbol": "CounterOfferCellMediaItem.mediaView()",
      "symbol_kind": "source.lang.swift.decl.function.method.instance",
      "warning": "undocumented"
    },
    {
      "file": "/Users/nautiyalsachin/Documents/Projects/Yelo/Chat Module/Views/CounterOfferPriceCollectionViewCell.swift",
      "line": 90,
      "symbol": "CounterOfferCellMediaItem.mediaPlaceholderView()",
      "symbol_kind": "source.lang.swift.decl.function.method.instance",
      "warning": "undocumented"
    },
    {
      "file": "/Users/nautiyalsachin/Documents/Projects/Yelo/Chat Module/Views/CounterOfferPriceCollectionViewCell.swift",
      "line": 94,
      "symbol": "CounterOfferCellMediaItem.mediaViewDisplaySize()",
      "symbol_kind": "source.lang.swift.decl.function.method.instance",
      "warning": "undocumented"
    },
    {
      "file": "/Users/nautiyalsachin/Documents/Projects/Yelo/Chat Module/Views/CounterOfferPriceCollectionViewCell.swift",
      "line": 98,
      "symbol": "CounterOfferCellMediaItem.mediaHash()",
      "symbol_kind": "source.lang.swift.decl.function.method.instance",
      "warning": "undocumented"
    },
    {
      "file": "/Users/nautiyalsachin/Documents/Projects/Yelo/Chat Module/Views/OfferCollectionViewCell.swift",
      "line": 15,
      "symbol": "OfferCollectionViewCell.mainViewOutlet",
      "symbol_kind": "source.lang.swift.decl.var.instance",
      "warning": "undocumented"
    },
    {
      "file": "/Users/nautiyalsachin/Documents/Projects/Yelo/Chat Module/Views/OfferCollectionViewCell.swift",
      "line": 16,
      "symbol": "OfferCollectionViewCell.mainTitleLabelOutlet",
      "symbol_kind": "source.lang.swift.decl.var.instance",
      "warning": "undocumented"
    },
    {
      "file": "/Users/nautiyalsachin/Documents/Projects/Yelo/Chat Module/Views/OfferCollectionViewCell.swift",
      "line": 17,
      "symbol": "OfferCollectionViewCell.priceOutlet",
      "symbol_kind": "source.lang.swift.decl.var.instance",
      "warning": "undocumented"
    },
    {
      "file": "/Users/nautiyalsachin/Documents/Projects/Yelo/Chat Module/Views/OfferCollectionViewCell.swift",
      "line": 48,
      "symbol": "OfferSentMediaItem.mediaView()",
      "symbol_kind": "source.lang.swift.decl.function.method.instance",
      "warning": "undocumented"
    },
    {
      "file": "/Users/nautiyalsachin/Documents/Projects/Yelo/Chat Module/Views/OfferCollectionViewCell.swift",
      "line": 52,
      "symbol": "OfferSentMediaItem.mediaPlaceholderView()",
      "symbol_kind": "source.lang.swift.decl.function.method.instance",
      "warning": "undocumented"
    },
    {
      "file": "/Users/nautiyalsachin/Documents/Projects/Yelo/Chat Module/Views/OfferCollectionViewCell.swift",
      "line": 56,
      "symbol": "OfferSentMediaItem.mediaViewDisplaySize()",
      "symbol_kind": "source.lang.swift.decl.function.method.instance",
      "warning": "undocumented"
    },
    {
      "file": "/Users/nautiyalsachin/Documents/Projects/Yelo/Chat Module/Views/OfferCollectionViewCell.swift",
      "line": 60,
      "symbol": "OfferSentMediaItem.mediaHash()",
      "symbol_kind": "source.lang.swift.decl.function.method.instance",
      "warning": "undocumented"
    },
    {
      "file": "/Users/nautiyalsachin/Documents/Projects/Yelo/Chat Module/Views/OfferCollectionViewCell.swift",
      "line": 72,
      "symbol": "OfferRecievedMediaItem.mediaPlaceholderView()",
      "symbol_kind": "source.lang.swift.decl.function.method.instance",
      "warning": "undocumented"
    },
    {
      "file": "/Users/nautiyalsachin/Documents/Projects/Yelo/Chat Module/Views/OfferCollectionViewCell.swift",
      "line": 76,
      "symbol": "OfferRecievedMediaItem.mediaView()",
      "symbol_kind": "source.lang.swift.decl.function.method.instance",
      "warning": "undocumented"
    },
    {
      "file": "/Users/nautiyalsachin/Documents/Projects/Yelo/Chat Module/Views/OfferCollectionViewCell.swift",
      "line": 80,
      "symbol": "OfferRecievedMediaItem.mediaViewDisplaySize()",
      "symbol_kind": "source.lang.swift.decl.function.method.instance",
      "warning": "undocumented"
    },
    {
      "file": "/Users/nautiyalsachin/Documents/Projects/Yelo/Chat Module/Views/OfferCollectionViewCell.swift",
      "line": 84,
      "symbol": "OfferRecievedMediaItem.mediaHash()",
      "symbol_kind": "source.lang.swift.decl.function.method.instance",
      "warning": "undocumented"
    },
    {
      "file": "/Users/nautiyalsachin/Documents/Projects/Yelo/Chat Module/Views/OfferCollectionViewCell.swift",
      "line": 95,
      "symbol": "AcceptedMediaItem.mediaPlaceholderView()",
      "symbol_kind": "source.lang.swift.decl.function.method.instance",
      "warning": "undocumented"
    },
    {
      "file": "/Users/nautiyalsachin/Documents/Projects/Yelo/Chat Module/Views/OfferCollectionViewCell.swift",
      "line": 99,
      "symbol": "AcceptedMediaItem.mediaView()",
      "symbol_kind": "source.lang.swift.decl.function.method.instance",
      "warning": "undocumented"
    },
    {
      "file": "/Users/nautiyalsachin/Documents/Projects/Yelo/Chat Module/Views/OfferCollectionViewCell.swift",
      "line": 103,
      "symbol": "AcceptedMediaItem.mediaViewDisplaySize()",
      "symbol_kind": "source.lang.swift.decl.function.method.instance",
      "warning": "undocumented"
    },
    {
      "file": "/Users/nautiyalsachin/Documents/Projects/Yelo/Chat Module/Views/OfferCollectionViewCell.swift",
      "line": 107,
      "symbol": "AcceptedMediaItem.mediaHash()",
      "symbol_kind": "source.lang.swift.decl.function.method.instance",
      "warning": "undocumented"
    },
    {
      "file": "/Users/nautiyalsachin/Documents/Projects/Yelo/Chat Module/Views/PayPalLinkSharedCell.swift",
      "line": 15,
      "symbol": "PayPalLinkSharedCell.paypalText",
      "symbol_kind": "source.lang.swift.decl.var.instance",
      "warning": "undocumented"
    },
    {
      "file": "/Users/nautiyalsachin/Documents/Projects/Yelo/Chat Module/Views/PayPalLinkSharedCell.swift",
      "line": 25,
      "symbol": "PayPalLinkSharedCell.awakeFromNib()",
      "symbol_kind": "source.lang.swift.decl.function.method.instance",
      "warning": "undocumented"
    },
    {
      "file": "/Users/nautiyalsachin/Documents/Projects/Yelo/Chat Module/Views/PayPalLinkSharedCell.swift",
      "line": 36,
      "symbol": "PayPalLinkSharedCellMediaItem.mediaView()",
      "symbol_kind": "source.lang.swift.decl.function.method.instance",
      "warning": "undocumented"
    },
    {
      "file": "/Users/nautiyalsachin/Documents/Projects/Yelo/Chat Module/Views/PayPalLinkSharedCell.swift",
      "line": 40,
      "symbol": "PayPalLinkSharedCellMediaItem.mediaPlaceholderView()",
      "symbol_kind": "source.lang.swift.decl.function.method.instance",
      "warning": "undocumented"
    },
    {
      "file": "/Users/nautiyalsachin/Documents/Projects/Yelo/Chat Module/Views/PayPalLinkSharedCell.swift",
      "line": 44,
      "symbol": "PayPalLinkSharedCellMediaItem.mediaViewDisplaySize()",
      "symbol_kind": "source.lang.swift.decl.function.method.instance",
      "warning": "undocumented"
    },
    {
      "file": "/Users/nautiyalsachin/Documents/Projects/Yelo/Chat Module/Views/PayPalLinkSharedCell.swift",
      "line": 48,
      "symbol": "PayPalLinkSharedCellMediaItem.mediaHash()",
      "symbol_kind": "source.lang.swift.decl.function.method.instance",
      "warning": "undocumented"
    },
    {
      "file": "/Users/nautiyalsachin/Documents/Projects/Yelo/Chat Module/Views/PaypalCollectionViewCell.swift",
      "line": 27,
      "symbol": "PaypalCollectionViewCell.priceLabelOutlet",
      "symbol_kind": "source.lang.swift.decl.var.instance",
      "warning": "undocumented"
    },
    {
      "file": "/Users/nautiyalsachin/Documents/Projects/Yelo/Chat Module/Views/PaypalCollectionViewCell.swift",
      "line": 36,
      "symbol": "PaypalCollectionViewCell.awakeFromNib()",
      "symbol_kind": "source.lang.swift.decl.function.method.instance",
      "warning": "undocumented"
    },
    {
      "file": "/Users/nautiyalsachin/Documents/Projects/Yelo/Chat Module/Views/PaypalCollectionViewCell.swift",
      "line": 41,
      "symbol": "PaypalCollectionViewCell.payPalButtonAction(_:)",
      "symbol_kind": "source.lang.swift.decl.function.method.instance",
      "warning": "undocumented"
    },
    {
      "file": "/Users/nautiyalsachin/Documents/Projects/Yelo/Chat Module/Views/PaypalCollectionViewCell.swift",
      "line": 52,
      "symbol": "PaypalCellMediaItem.mediaView()",
      "symbol_kind": "source.lang.swift.decl.function.method.instance",
      "warning": "undocumented"
    },
    {
      "file": "/Users/nautiyalsachin/Documents/Projects/Yelo/Chat Module/Views/PaypalCollectionViewCell.swift",
      "line": 56,
      "symbol": "PaypalCellMediaItem.mediaPlaceholderView()",
      "symbol_kind": "source.lang.swift.decl.function.method.instance",
      "warning": "undocumented"
    },
    {
      "file": "/Users/nautiyalsachin/Documents/Projects/Yelo/Chat Module/Views/PaypalCollectionViewCell.swift",
      "line": 60,
      "symbol": "PaypalCellMediaItem.mediaViewDisplaySize()",
      "symbol_kind": "source.lang.swift.decl.function.method.instance",
      "warning": "undocumented"
    },
    {
      "file": "/Users/nautiyalsachin/Documents/Projects/Yelo/Chat Module/Views/PaypalCollectionViewCell.swift",
      "line": 64,
      "symbol": "PaypalCellMediaItem.mediaHash()",
      "symbol_kind": "source.lang.swift.decl.function.method.instance",
      "warning": "undocumented"
    },
    {
      "file": "/Users/nautiyalsachin/Documents/Projects/Yelo/Chat Module/Views/ReceivedLocationCell.swift",
      "line": 15,
      "symbol": "ReceivedLocationCell.locationImageOutlet",
      "symbol_kind": "source.lang.swift.decl.var.instance",
      "warning": "undocumented"
    },
    {
      "file": "/Users/nautiyalsachin/Documents/Projects/Yelo/Chat Module/Views/ReceivedLocationCell.swift",
      "line": 56,
      "symbol": "ReceivedLocationCell.awakeFromNib()",
      "symbol_kind": "source.lang.swift.decl.function.method.instance",
      "warning": "undocumented"
    },
    {
      "file": "/Users/nautiyalsachin/Documents/Projects/Yelo/Chat Module/Views/ReceivedLocationCell.swift",
      "line": 67,
      "symbol": "ReceivedLocationMediaItem.mediaView()",
      "symbol_kind": "source.lang.swift.decl.function.method.instance",
      "warning": "undocumented"
    },
    {
      "file": "/Users/nautiyalsachin/Documents/Projects/Yelo/Chat Module/Views/ReceivedLocationCell.swift",
      "line": 71,
      "symbol": "ReceivedLocationMediaItem.mediaPlaceholderView()",
      "symbol_kind": "source.lang.swift.decl.function.method.instance",
      "warning": "undocumented"
    },
    {
      "file": "/Users/nautiyalsachin/Documents/Projects/Yelo/Chat Module/Views/ReceivedLocationCell.swift",
      "line": 75,
      "symbol": "ReceivedLocationMediaItem.mediaViewDisplaySize()",
      "symbol_kind": "source.lang.swift.decl.function.method.instance",
      "warning": "undocumented"
    },
    {
      "file": "/Users/nautiyalsachin/Documents/Projects/Yelo/Chat Module/Views/ReceivedLocationCell.swift",
      "line": 79,
      "symbol": "ReceivedLocationMediaItem.mediaHash()",
      "symbol_kind": "source.lang.swift.decl.function.method.instance",
      "warning": "undocumented"
    },
    {
      "file": "/Users/nautiyalsachin/Documents/Projects/Yelo/Chat Module/Views/SentLocationCell.swift",
      "line": 13,
      "symbol": "SentLocationCell",
      "symbol_kind": "source.lang.swift.decl.class",
      "warning": "undocumented"
    },
    {
      "file": "/Users/nautiyalsachin/Documents/Projects/Yelo/Chat Module/Views/SentLocationCell.swift",
      "line": 15,
      "symbol": "SentLocationCell.awakeFromNib()",
      "symbol_kind": "source.lang.swift.decl.function.method.instance",
      "warning": "undocumented"
    },
    {
      "file": "/Users/nautiyalsachin/Documents/Projects/Yelo/Chat Module/Views/SentLocationCell.swift",
      "line": 19,
      "symbol": "SentLocationCell.locationImageOutlet",
      "symbol_kind": "source.lang.swift.decl.var.instance",
      "warning": "undocumented"
    },
    {
      "file": "/Users/nautiyalsachin/Documents/Projects/Yelo/Chat Module/Views/SentLocationCell.swift",
      "line": 68,
      "symbol": "SentLocationMediaItem.mediaView()",
      "symbol_kind": "source.lang.swift.decl.function.method.instance",
      "warning": "undocumented"
    },
    {
      "file": "/Users/nautiyalsachin/Documents/Projects/Yelo/Chat Module/Views/SentLocationCell.swift",
      "line": 72,
      "symbol": "SentLocationMediaItem.mediaPlaceholderView()",
      "symbol_kind": "source.lang.swift.decl.function.method.instance",
      "warning": "undocumented"
    },
    {
      "file": "/Users/nautiyalsachin/Documents/Projects/Yelo/Chat Module/Views/SentLocationCell.swift",
      "line": 76,
      "symbol": "SentLocationMediaItem.mediaViewDisplaySize()",
      "symbol_kind": "source.lang.swift.decl.function.method.instance",
      "warning": "undocumented"
    },
    {
      "file": "/Users/nautiyalsachin/Documents/Projects/Yelo/Chat Module/Views/SentLocationCell.swift",
      "line": 80,
      "symbol": "SentLocationMediaItem.mediaHash()",
      "symbol_kind": "source.lang.swift.decl.function.method.instance",
      "warning": "undocumented"
    },
    {
      "file": "/Users/nautiyalsachin/Documents/Projects/Yelo/Chat Module/Views/ThankYouMessageCollectionViewCell.swift",
      "line": 16,
      "symbol": "ThankYouMessageCollectionViewCell.awakeFromNib()",
      "symbol_kind": "source.lang.swift.decl.function.method.instance",
      "warning": "undocumented"
    },
    {
      "file": "/Users/nautiyalsachin/Documents/Projects/Yelo/Chat Module/Views/ThankYouMessageCollectionViewCell.swift",
      "line": 32,
      "symbol": "ThankYouMessageMediaItem.mediaView()",
      "symbol_kind": "source.lang.swift.decl.function.method.instance",
      "warning": "undocumented"
    },
    {
      "file": "/Users/nautiyalsachin/Documents/Projects/Yelo/Chat Module/Views/ThankYouMessageCollectionViewCell.swift",
      "line": 36,
      "symbol": "ThankYouMessageMediaItem.mediaPlaceholderView()",
      "symbol_kind": "source.lang.swift.decl.function.method.instance",
      "warning": "undocumented"
    },
    {
      "file": "/Users/nautiyalsachin/Documents/Projects/Yelo/Chat Module/Views/ThankYouMessageCollectionViewCell.swift",
      "line": 40,
      "symbol": "ThankYouMessageMediaItem.mediaViewDisplaySize()",
      "symbol_kind": "source.lang.swift.decl.function.method.instance",
      "warning": "undocumented"
    },
    {
      "file": "/Users/nautiyalsachin/Documents/Projects/Yelo/Chat Module/Views/ThankYouMessageCollectionViewCell.swift",
      "line": 44,
      "symbol": "ThankYouMessageMediaItem.mediaHash()",
      "symbol_kind": "source.lang.swift.decl.function.method.instance",
      "warning": "undocumented"
    }
  ],
  "source_directory": "/Users/nautiyalsachin/Documents/Projects/Yelo"
}